<?xml version="1.0" encoding="UTF-8"?>
<testsuites>
  <testsuite name="Test Suite" tests="2" assertions="2" errors="0" failures="0" skipped="0" time="0.003022">
    <testsuite name="JokenPo\JokenPoTest" file="/Users/eminetto/Documents/Projects/exercicio-gitlab/tests/JokenPoTest.php" tests="2" assertions="2" errors="0" failures="0" skipped="0" time="0.003022">
      <testcase name="testPapelXPapel" class="JokenPo\JokenPoTest" classname="JokenPo.JokenPoTest" file="/Users/eminetto/Documents/Projects/exercicio-gitlab/tests/JokenPoTest.php" line="7" assertions="1" time="0.002412"/>
      <testcase name="testRules" class="JokenPo\JokenPoTest" classname="JokenPo.JokenPoTest" file="/Users/eminetto/Documents/Projects/exercicio-gitlab/tests/JokenPoTest.php" line="13" assertions="1" time="0.000610"/>
    </testsuite>
  </testsuite>
</testsuites>
